U.S. Local Area Unemployment Statistics • laus
…
Show the data frame

library(tidyverse)
laus::state_year
#> # A tibble: 2,193 x 10
#>    fips  state    year     pop    clf pc_clf    emp pc_emp   unem unem_rate
#>    <chr> <chr>    <chr>  <dbl>  <dbl>  <dbl>  <dbl>  <dbl>  <dbl>     <dbl>
#>  1 01    Alabama  1976  2.63e6 1.50e6   57   1.40e6   53.1 102204       6.8
#>  2 02    Alaska   1976  2.40e5 1.64e5   68.2 1.51e5   63    12380       7.6
#>  3 04    Arizona  1976  1.65e6 9.87e5   59.8 8.91e5   54    96072       9.7
#>  4 05    Arkansas 1976  1.55e6 8.92e5   57.7 8.29e5   53.6  62214       7  
#>  5 06    Califor… 1976  1.58e7 9.90e6   62.6 8.99e6   56.8 905081       9.1
#>  6 08    Colorado 1976  1.86e6 1.24e6   66.8 1.17e6   62.9  72352       5.8
#>  7 09    Connect… 1976  2.26e6 1.46e6   64.4 1.32e6   58.4 135230       9.3
#>  8 10    Delaware 1976  4.21e5 2.65e5   62.9 2.42e5   57.4  23177       8.8
#>  9 11    Distric… 1976  5.17e5 3.35e5   64.8 3.05e5   59    30177       9  
#> 10 12    Florida  1976  6.51e6 3.60e6   55.3 3.27e6   50.3 330245       9.2
#> # … with 2,183 more rows
laus::county_year
#> # A tibble: 93,307 x 11
#>    laus_code fips  state_fips county_fips county state year  labor_force
#>    <chr>     <chr> <chr>      <chr>       <chr>  <chr> <chr>       <dbl>
#>  1 CN010010… 01001 01         001         Autau… AL    1990        16908
#>  2 CN010030… 01003 01         003         Baldw… AL    1990        46824
#>  3 CN010050… 01005 01         005         Barbo… AL    1990        11490
#>  4 CN010070… 01007 01         007         Bibb … AL    1990         7434
#>  5 CN010090… 01009 01         009         Bloun… AL    1990        19168
#>  6 CN010110… 01011 01         011         Bullo… AL    1990         4407
#>  7 CN010130… 01013 01         013         Butle… AL    1990         8838
#>  8 CN010150… 01015 01         015         Calho… AL    1990        51519
#>  9 CN010170… 01017 01         017         Chamb… AL    1990        17705
#> 10 CN010190… 01019 01         019         Chero… AL    1990         9644
#> # … with 93,297 more rows, and 3 more variables: employed <dbl>,
#> #   unemployed <dbl>, unemployment_rate <dbl>
…
